
{
  "header": {
    "reportVersion": 1,
    "event": "Allocation failed - JavaScript heap out of memory",
    "trigger": "FatalError",
    "filename": "report.20211021.150232.5432.0.001.json",
    "dumpEventTime": "2021-10-21T15:02:32Z",
    "dumpEventTimeStamp": "1634808752652",
    "processId": 5432,
    "cwd": "D:\\client-angular",
    "commandLine": [
      "node",
      "C:\\Users\\KVCH\\AppData\\Roaming\\npm\\\\node_modules\\@angular\\cli\\bin\\ng",
      "serve"
    ],
    "nodejsVersion": "v12.14.0",
    "wordSize": 64,
    "arch": "x64",
    "platform": "win32",
    "componentVersions": {
      "node": "12.14.0",
      "v8": "7.7.299.13-node.16",
      "uv": "1.33.1",
      "zlib": "1.2.11",
      "brotli": "1.0.7",
      "ares": "1.15.0",
      "modules": "72",
      "nghttp2": "1.39.2",
      "napi": "5",
      "llhttp": "1.1.4",
      "http_parser": "2.8.0",
      "openssl": "1.1.1d",
      "cldr": "35.1",
      "icu": "64.2",
      "tz": "2019c",
      "unicode": "12.1"
    },
    "release": {
      "name": "node",
      "lts": "Erbium",
      "headersUrl": "https://nodejs.org/download/release/v12.14.0/node-v12.14.0-headers.tar.gz",
      "sourceUrl": "https://nodejs.org/download/release/v12.14.0/node-v12.14.0.tar.gz",
      "libUrl": "https://nodejs.org/download/release/v12.14.0/win-x64/node.lib"
    },
    "osName": "Windows_NT",
    "osRelease": "6.1.7601",
    "osVersion": "Windows 7 Ultimate Service Pack 1",
    "osMachine": "x86_64",
    "cpus": [
      {
        "model": "Intel(R) Core(TM) i3 CPU         540  @ 3.07GHz",
        "speed": 3156,
        "user": 3936812,
        "nice": 0,
        "sys": 666890,
        "idle": 12655125,
        "irq": 17765
      },
      {
        "model": "Intel(R) Core(TM) i3 CPU         540  @ 3.07GHz",
        "speed": 3156,
        "user": 2841265,
        "nice": 0,
        "sys": 364500,
        "idle": 14052453,
        "irq": 51531
      },
      {
        "model": "Intel(R) Core(TM) i3 CPU         540  @ 3.07GHz",
        "speed": 3156,
        "user": 4507453,
        "nice": 0,
        "sys": 700500,
        "idle": 12050250,
        "irq": 51109
      },
      {
        "model": "Intel(R) Core(TM) i3 CPU         540  @ 3.07GHz",
        "speed": 3156,
        "user": 2314968,
        "nice": 0,
        "sys": 286781,
        "idle": 14656437,
        "irq": 47750
      }
    ],
    "networkInterfaces": [
      {
        "name": "Local Area Connection",
        "internal": false,
        "mac": "00:30:67:94:3a:89",
        "address": "fe80::84be:3675:5746:52aa",
        "netmask": "ffff:ffff:ffff:ffff::",
        "family": "IPv6",
        "scopeid": 11
      },
      {
        "name": "Local Area Connection",
        "internal": false,
        "mac": "00:30:67:94:3a:89",
        "address": "192.168.1.43",
        "netmask": "255.255.255.0",
        "family": "IPv4"
      },
      {
        "name": "Loopback Pseudo-Interface 1",
        "internal": true,
        "mac": "00:00:00:00:00:00",
        "address": "::1",
        "netmask": "ffff:ffff:ffff:ffff:ffff:ffff:ffff:ffff",
        "family": "IPv6",
        "scopeid": 0
      },
      {
        "name": "Loopback Pseudo-Interface 1",
        "internal": true,
        "mac": "00:00:00:00:00:00",
        "address": "127.0.0.1",
        "netmask": "255.0.0.0",
        "family": "IPv4"
      }
    ],
    "host": "KVCH-PC"
  },
  "javascriptStack": {
    "message": "No stack.",
    "stack": [
      "Unavailable."
    ]
  },
  "nativeStack": [
    {
      "pc": "0x000000013f661729",
      "symbol": "std::basic_ostream<char,std::char_traits<char> >::operator<<+10873"
    },
    {
      "pc": "0x000000013f665b4c",
      "symbol": "std::basic_ostream<char,std::char_traits<char> >::operator<<+28316"
    },
    {
      "pc": "0x000000013f664b08",
      "symbol": "std::basic_ostream<char,std::char_traits<char> >::operator<<+24152"
    },
    {
      "pc": "0x000000013f75369b",
      "symbol": "v8::base::CPU::has_sse+37723"
    },
    {
      "pc": "0x000000013ff582de",
      "symbol": "v8::Isolate::ReportExternalAllocationLimitReached+94"
    },
    {
      "pc": "0x000000013ff40321",
      "symbol": "v8::SharedArrayBuffer::Externalize+833"
    },
    {
      "pc": "0x000000013fe0dbec",
      "symbol": "v8::internal::Heap::EphemeronKeyWriteBarrierFromCode+1436"
    },
    {
      "pc": "0x000000013fe18f90",
      "symbol": "v8::internal::Heap::ProtectUnprotectedMemoryChunks+1312"
    },
    {
      "pc": "0x000000013fe15ac4",
      "symbol": "v8::internal::Heap::PageFlagsAreConsistent+3204"
    },
    {
      "pc": "0x000000013fe0b353",
      "symbol": "v8::internal::Heap::CollectGarbage+1283"
    },
    {
      "pc": "0x000000013fe09b24",
      "symbol": "v8::internal::Heap::AddRetainedMap+2356"
    },
    {
      "pc": "0x000000013fe2adf5",
      "symbol": "v8::internal::Factory::NewFillerObject+53"
    },
    {
      "pc": "0x000000013fb96e19",
      "symbol": "v8::internal::interpreter::JumpTableTargetOffsets::iterator::operator=+4057"
    },
    {
      "pc": "0x000000014038404d",
      "symbol": "v8::internal::SetupIsolateDelegate::SetupHeap+567949"
    },
    {
      "pc": "0x00000001403050d1",
      "symbol": "v8::internal::SetupIsolateDelegate::SetupHeap+47889"
    },
    {
      "pc": "0x00000113e43f0a28",
      "symbol": ""
    }
  ],
  "javascriptHeap": {
    "totalMemory": 2159325184,
    "totalCommittedMemory": 2159325184,
    "usedMemory": 2056357544,
    "availableMemory": 96716392,
    "memoryLimit": 2197815296,
    "heapSpaces": {
      "read_only_space": {
        "memorySize": 262144,
        "committedMemory": 262144,
        "capacity": 261872,
        "used": 32296,
        "available": 229576
      },
      "new_space": {
        "memorySize": 33554432,
        "committedMemory": 33554432,
        "capacity": 16759808,
        "used": 19152,
        "available": 16740656
      },
      "old_space": {
        "memorySize": 1908781056,
        "committedMemory": 1908781056,
        "capacity": 1872781560,
        "used": 1848285320,
        "available": 24496240
      },
      "code_space": {
        "memorySize": 13271040,
        "committedMemory": 13271040,
        "capacity": 11416768,
        "used": 11416768,
        "available": 0
      },
      "map_space": {
        "memorySize": 10489856,
        "committedMemory": 10489856,
        "capacity": 4737120,
        "used": 4737120,
        "available": 0
      },
      "large_object_space": {
        "memorySize": 192344064,
        "committedMemory": 192344064,
        "capacity": 191316392,
        "used": 191316392,
        "available": 0
      },
      "code_large_object_space": {
        "memorySize": 622592,
        "committedMemory": 622592,
        "capacity": 550496,
        "used": 550496,
        "available": 0
      },
      "new_large_object_space": {
        "memorySize": 0,
        "committedMemory": 0,
        "capacity": 16759808,
        "used": 0,
        "available": 16759808
      }
    }
  },
  "resourceUsage": {
    "userCpuSeconds": 935.296,
    "kernelCpuSeconds": 22.265,
    "cpuConsumptionPercent": 12.6361,
    "maxRss": 2286039040,
    "pageFaults": {
      "IORequired": 3265120,
      "IONotRequired": 0
    },
    "fsActivity": {
      "reads": 17882,
      "writes": 1
    }
  },
  "libuv": [
  ],
  "environmentVariables": {
    "=::": "::\\",
    "=D:": "D:\\client-angular",
    "ALLUSERSPROFILE": "C:\\ProgramData",
    "APPDATA": "C:\\Users\\KVCH\\AppData\\Roaming",
    "BROWSERSLIST_IGNORE_OLD_DATA": "1",
    "CommonProgramFiles": "C:\\Program Files\\Common Files",
    "CommonProgramFiles(x86)": "C:\\Program Files (x86)\\Common Files",
    "CommonProgramW6432": "C:\\Program Files\\Common Files",
    "COMPUTERNAME": "KVCH-PC",
    "ComSpec": "C:\\Windows\\system32\\cmd.exe",
    "dp0": "C:\\Users\\KVCH\\AppData\\Roaming\\npm\\",
    "FP_NO_HOST_CHECK": "NO",
    "HOMEDRIVE": "C:",
    "HOMEPATH": "\\Users\\KVCH",
    "LOCALAPPDATA": "C:\\Users\\KVCH\\AppData\\Local",
    "LOGONSERVER": "\\\\KVCH-PC",
    "NUMBER_OF_PROCESSORS": "4",
    "OS": "Windows_NT",
    "Path": "C:\\Windows\\system32;C:\\Windows;C:\\Windows\\System32\\Wbem;C:\\Program Files\\Git\\cmd;C:\\Program Files\\nodejs\\;C:\\Windows\\System32\\WindowsPowerShell\\v1.0\\;C:\\Windows\\System32\\WindowsPowerShell\\v1.0\\;C:\\Windows\\System32\\WindowsPowerShell\\v1.0\\;;C:\\Users\\KVCH\\AppData\\Local\\Programs\\Microsoft VS Code\\bin;C:\\Users\\KVCH\\AppData\\Roaming\\npm",
    "PATHEXT": ".COM;.EXE;.BAT;.CMD;.VBS;.VBE;.JSE;.WSF;.WSH;.MSC",
    "PROCESSOR_ARCHITECTURE": "AMD64",
    "PROCESSOR_IDENTIFIER": "Intel64 Family 6 Model 37 Stepping 5, GenuineIntel",
    "PROCESSOR_LEVEL": "6",
    "PROCESSOR_REVISION": "2505",
    "ProgramData": "C:\\ProgramData",
    "ProgramFiles": "C:\\Program Files",
    "ProgramFiles(x86)": "C:\\Program Files (x86)",
    "ProgramW6432": "C:\\Program Files",
    "PROMPT": "$P$G",
    "PSModulePath": "C:\\Windows\\system32\\WindowsPowerShell\\v1.0\\Modules\\",
    "PUBLIC": "C:\\Users\\Public",
    "SESSIONNAME": "Console",
    "SystemDrive": "C:",
    "SystemRoot": "C:\\Windows",
    "TAILWIND_MODE": "watch",
    "TEMP": "C:\\Users\\KVCH\\AppData\\Local\\Temp",
    "TMP": "C:\\Users\\KVCH\\AppData\\Local\\Temp",
    "USERDOMAIN": "KVCH-PC",
    "USERNAME": "KVCH",
    "USERPROFILE": "C:\\Users\\KVCH",
    "WEBPACK_DEV_SERVER": "true",
    "windir": "C:\\Windows",
    "windows_tracing_flags": "3",
    "windows_tracing_logfile": "C:\\BVTBin\\Tests\\installpackage\\csilogfile.log",
    "_prog": "node"
  },
  "sharedObjects": [
    "C:\\Program Files\\nodejs\\node.exe",
    "C:\\Windows\\SYSTEM32\\ntdll.dll",
    "C:\\Windows\\system32\\kernel32.dll",
    "C:\\Windows\\system32\\KERNELBASE.dll",
    "C:\\Windows\\system32\\dbghelp.dll",
    "C:\\Windows\\system32\\msvcrt.dll",
    "C:\\Windows\\system32\\WS2_32.dll",
    "C:\\Windows\\system32\\RPCRT4.dll",
    "C:\\Windows\\system32\\NSI.dll",
    "C:\\Windows\\system32\\ADVAPI32.dll",
    "C:\\Windows\\SYSTEM32\\sechost.dll",
    "C:\\Windows\\system32\\USER32.dll",
    "C:\\Windows\\system32\\GDI32.dll",
    "C:\\Windows\\system32\\LPK.dll",
    "C:\\Windows\\system32\\USP10.dll",
    "C:\\Windows\\system32\\IPHLPAPI.DLL",
    "C:\\Windows\\system32\\WINNSI.DLL",
    "C:\\Windows\\system32\\PSAPI.DLL",
    "C:\\Windows\\system32\\USERENV.dll",
    "C:\\Windows\\system32\\profapi.dll",
    "C:\\Windows\\system32\\CRYPT32.dll",
    "C:\\Windows\\system32\\MSASN1.dll",
    "C:\\Windows\\system32\\bcrypt.dll",
    "C:\\Windows\\system32\\WINMM.dll",
    "C:\\Windows\\system32\\IMM32.DLL",
    "C:\\Windows\\system32\\MSCTF.dll",
    "C:\\Windows\\system32\\api-ms-win-core-synch-l1-2-0.DLL",
    "C:\\Windows\\system32\\powrprof.dll",
    "C:\\Windows\\system32\\SETUPAPI.dll",
    "C:\\Windows\\system32\\CFGMGR32.dll",
    "C:\\Windows\\system32\\OLEAUT32.dll",
    "C:\\Windows\\system32\\ole32.dll",
    "C:\\Windows\\system32\\DEVOBJ.dll",
    "C:\\Windows\\system32\\uxtheme.dll",
    "C:\\Windows\\system32\\mswsock.dll",
    "C:\\Windows\\System32\\wshtcpip.dll",
    "C:\\Windows\\System32\\wship6.dll",
    "C:\\Windows\\system32\\bcryptprimitives.dll",
    "C:\\Windows\\system32\\dhcpcsvc6.DLL",
    "C:\\Windows\\system32\\dhcpcsvc.DLL",
    "C:\\Windows\\system32\\NLAapi.dll",
    "C:\\Windows\\system32\\napinsp.dll",
    "C:\\Windows\\system32\\pnrpnsp.dll",
    "C:\\Windows\\system32\\DNSAPI.dll",
    "C:\\Windows\\System32\\winrnr.dll",
    "C:\\Windows\\system32\\cryptbase.dll",
    "C:\\Windows\\system32\\rasadhlp.dll",
    "C:\\Windows\\System32\\fwpuclnt.dll"
  ]
}