
{
  "header": {
    "reportVersion": 1,
    "event": "Allocation failed - JavaScript heap out of memory",
    "trigger": "FatalError",
    "filename": "report.20211115.183754.2784.0.001.json",
    "dumpEventTime": "2021-11-15T18:37:55Z",
    "dumpEventTimeStamp": "1636981675836",
    "processId": 2784,
    "cwd": "D:\\client-angular",
    "commandLine": [
      "node",
      "C:\\Users\\KVCH\\AppData\\Roaming\\npm\\\\node_modules\\@angular\\cli\\bin\\ng",
      "serve"
    ],
    "nodejsVersion": "v12.14.0",
    "wordSize": 64,
    "arch": "x64",
    "platform": "win32",
    "componentVersions": {
      "node": "12.14.0",
      "v8": "7.7.299.13-node.16",
      "uv": "1.33.1",
      "zlib": "1.2.11",
      "brotli": "1.0.7",
      "ares": "1.15.0",
      "modules": "72",
      "nghttp2": "1.39.2",
      "napi": "5",
      "llhttp": "1.1.4",
      "http_parser": "2.8.0",
      "openssl": "1.1.1d",
      "cldr": "35.1",
      "icu": "64.2",
      "tz": "2019c",
      "unicode": "12.1"
    },
    "release": {
      "name": "node",
      "lts": "Erbium",
      "headersUrl": "https://nodejs.org/download/release/v12.14.0/node-v12.14.0-headers.tar.gz",
      "sourceUrl": "https://nodejs.org/download/release/v12.14.0/node-v12.14.0.tar.gz",
      "libUrl": "https://nodejs.org/download/release/v12.14.0/win-x64/node.lib"
    },
    "osName": "Windows_NT",
    "osRelease": "6.1.7601",
    "osVersion": "Windows 7 Ultimate Service Pack 1",
    "osMachine": "x86_64",
    "cpus": [
      {
        "model": "Intel(R) Core(TM) i3 CPU         540  @ 3.07GHz",
        "speed": 3066,
        "user": 5615843,
        "nice": 0,
        "sys": 708453,
        "idle": 23672421,
        "irq": 20078
      },
      {
        "model": "Intel(R) Core(TM) i3 CPU         540  @ 3.07GHz",
        "speed": 3066,
        "user": 3643343,
        "nice": 0,
        "sys": 347140,
        "idle": 26005625,
        "irq": 18203
      },
      {
        "model": "Intel(R) Core(TM) i3 CPU         540  @ 3.07GHz",
        "speed": 3066,
        "user": 5842921,
        "nice": 0,
        "sys": 734171,
        "idle": 23419000,
        "irq": 20250
      },
      {
        "model": "Intel(R) Core(TM) i3 CPU         540  @ 3.07GHz",
        "speed": 3066,
        "user": 3057078,
        "nice": 0,
        "sys": 263531,
        "idle": 26675453,
        "irq": 17453
      }
    ],
    "networkInterfaces": [
      {
        "name": "Local Area Connection",
        "internal": false,
        "mac": "00:30:67:94:3a:89",
        "address": "fd9f:207:264e:1:84be:3675:5746:52aa",
        "netmask": "ffff:ffff:ffff:ffff::",
        "family": "IPv6",
        "scopeid": 0
      },
      {
        "name": "Local Area Connection",
        "internal": false,
        "mac": "00:30:67:94:3a:89",
        "address": "fd9f:207:264e:1:2d16:18a9:4a73:d033",
        "netmask": "ffff:ffff:ffff:ffff:ffff:ffff:ffff:ffff",
        "family": "IPv6",
        "scopeid": 0
      },
      {
        "name": "Local Area Connection",
        "internal": false,
        "mac": "00:30:67:94:3a:89",
        "address": "fe80::84be:3675:5746:52aa",
        "netmask": "ffff:ffff:ffff:ffff::",
        "family": "IPv6",
        "scopeid": 11
      },
      {
        "name": "Local Area Connection",
        "internal": false,
        "mac": "00:30:67:94:3a:89",
        "address": "192.168.1.43",
        "netmask": "255.255.255.0",
        "family": "IPv4"
      },
      {
        "name": "Loopback Pseudo-Interface 1",
        "internal": true,
        "mac": "00:00:00:00:00:00",
        "address": "::1",
        "netmask": "ffff:ffff:ffff:ffff:ffff:ffff:ffff:ffff",
        "family": "IPv6",
        "scopeid": 0
      },
      {
        "name": "Loopback Pseudo-Interface 1",
        "internal": true,
        "mac": "00:00:00:00:00:00",
        "address": "127.0.0.1",
        "netmask": "255.0.0.0",
        "family": "IPv4"
      }
    ],
    "host": "KVCH-PC"
  },
  "javascriptStack": {
    "message": "No stack.",
    "stack": [
      "Unavailable."
    ]
  },
  "nativeStack": [
    {
      "pc": "0x000000013f9e1729",
      "symbol": "std::basic_ostream<char,std::char_traits<char> >::operator<<+10873"
    },
    {
      "pc": "0x000000013f9e5b4c",
      "symbol": "std::basic_ostream<char,std::char_traits<char> >::operator<<+28316"
    },
    {
      "pc": "0x000000013f9e4b08",
      "symbol": "std::basic_ostream<char,std::char_traits<char> >::operator<<+24152"
    },
    {
      "pc": "0x000000013fad369b",
      "symbol": "v8::base::CPU::has_sse+37723"
    },
    {
      "pc": "0x00000001402d82de",
      "symbol": "v8::Isolate::ReportExternalAllocationLimitReached+94"
    },
    {
      "pc": "0x00000001402c0321",
      "symbol": "v8::SharedArrayBuffer::Externalize+833"
    },
    {
      "pc": "0x000000014018dbec",
      "symbol": "v8::internal::Heap::EphemeronKeyWriteBarrierFromCode+1436"
    },
    {
      "pc": "0x0000000140198f90",
      "symbol": "v8::internal::Heap::ProtectUnprotectedMemoryChunks+1312"
    },
    {
      "pc": "0x0000000140195ac4",
      "symbol": "v8::internal::Heap::PageFlagsAreConsistent+3204"
    },
    {
      "pc": "0x000000014018b353",
      "symbol": "v8::internal::Heap::CollectGarbage+1283"
    },
    {
      "pc": "0x0000000140189b24",
      "symbol": "v8::internal::Heap::AddRetainedMap+2356"
    },
    {
      "pc": "0x00000001401aadf5",
      "symbol": "v8::internal::Factory::NewFillerObject+53"
    },
    {
      "pc": "0x000000013ff16e19",
      "symbol": "v8::internal::interpreter::JumpTableTargetOffsets::iterator::operator=+4057"
    },
    {
      "pc": "0x000000014070404d",
      "symbol": "v8::internal::SetupIsolateDelegate::SetupHeap+567949"
    },
    {
      "pc": "0x000000b4db827ba9",
      "symbol": ""
    }
  ],
  "javascriptHeap": {
    "totalMemory": 2153046016,
    "totalCommittedMemory": 2153046016,
    "usedMemory": 2094666896,
    "availableMemory": 47093024,
    "memoryLimit": 2197815296,
    "heapSpaces": {
      "read_only_space": {
        "memorySize": 262144,
        "committedMemory": 262144,
        "capacity": 261872,
        "used": 32296,
        "available": 229576
      },
      "new_space": {
        "memorySize": 2097152,
        "committedMemory": 2097152,
        "capacity": 1047488,
        "used": 808,
        "available": 1046680
      },
      "old_space": {
        "memorySize": 1945481216,
        "committedMemory": 1945481216,
        "capacity": 1897641072,
        "used": 1897641072,
        "available": 0
      },
      "code_space": {
        "memorySize": 12484608,
        "committedMemory": 12484608,
        "capacity": 10417312,
        "used": 10417312,
        "available": 0
      },
      "map_space": {
        "memorySize": 9703424,
        "committedMemory": 9703424,
        "capacity": 4640480,
        "used": 4640480,
        "available": 0
      },
      "large_object_space": {
        "memorySize": 182034432,
        "committedMemory": 182034432,
        "capacity": 181037392,
        "used": 181037392,
        "available": 0
      },
      "code_large_object_space": {
        "memorySize": 983040,
        "committedMemory": 983040,
        "capacity": 897536,
        "used": 897536,
        "available": 0
      },
      "new_large_object_space": {
        "memorySize": 0,
        "committedMemory": 0,
        "capacity": 1047488,
        "used": 0,
        "available": 1047488
      }
    }
  },
  "resourceUsage": {
    "userCpuSeconds": 999.937,
    "kernelCpuSeconds": 23.281,
    "cpuConsumptionPercent": 21.7938,
    "maxRss": 2679021568,
    "pageFaults": {
      "IORequired": 3055459,
      "IONotRequired": 0
    },
    "fsActivity": {
      "reads": 17696,
      "writes": 1
    }
  },
  "libuv": [
  ],
  "environmentVariables": {
    "=::": "::\\",
    "=D:": "D:\\client-angular",
    "ALLUSERSPROFILE": "C:\\ProgramData",
    "APPDATA": "C:\\Users\\KVCH\\AppData\\Roaming",
    "BROWSERSLIST_IGNORE_OLD_DATA": "1",
    "CommonProgramFiles": "C:\\Program Files\\Common Files",
    "CommonProgramFiles(x86)": "C:\\Program Files (x86)\\Common Files",
    "CommonProgramW6432": "C:\\Program Files\\Common Files",
    "COMPUTERNAME": "KVCH-PC",
    "ComSpec": "C:\\Windows\\system32\\cmd.exe",
    "dp0": "C:\\Users\\KVCH\\AppData\\Roaming\\npm\\",
    "FP_NO_HOST_CHECK": "NO",
    "HOMEDRIVE": "C:",
    "HOMEPATH": "\\Users\\KVCH",
    "LOCALAPPDATA": "C:\\Users\\KVCH\\AppData\\Local",
    "LOGONSERVER": "\\\\KVCH-PC",
    "NUMBER_OF_PROCESSORS": "4",
    "OS": "Windows_NT",
    "Path": "C:\\Windows\\system32;C:\\Windows;C:\\Windows\\System32\\Wbem;C:\\Program Files\\Git\\cmd;C:\\Program Files\\nodejs\\;C:\\Windows\\System32\\WindowsPowerShell\\v1.0\\;C:\\Windows\\System32\\WindowsPowerShell\\v1.0\\;C:\\Windows\\System32\\WindowsPowerShell\\v1.0\\;;C:\\Users\\KVCH\\AppData\\Local\\Programs\\Microsoft VS Code\\bin;C:\\Users\\KVCH\\AppData\\Roaming\\npm;C:\\Users\\KVCH\\.windows-build-tools\\python27;C:\\Users\\KVCH\\AppData\\Local\\JetBrains\\Toolbox\\apps\\WebStorm\\ch-0\\212.5284.41\\bin;",
    "PATHEXT": ".COM;.EXE;.BAT;.CMD;.VBS;.VBE;.JSE;.WSF;.WSH;.MSC",
    "PROCESSOR_ARCHITECTURE": "AMD64",
    "PROCESSOR_IDENTIFIER": "Intel64 Family 6 Model 37 Stepping 5, GenuineIntel",
    "PROCESSOR_LEVEL": "6",
    "PROCESSOR_REVISION": "2505",
    "ProgramData": "C:\\ProgramData",
    "ProgramFiles": "C:\\Program Files",
    "ProgramFiles(x86)": "C:\\Program Files (x86)",
    "ProgramW6432": "C:\\Program Files",
    "PROMPT": "$P$G",
    "PSModulePath": "C:\\Windows\\system32\\WindowsPowerShell\\v1.0\\Modules\\",
    "PUBLIC": "C:\\Users\\Public",
    "SESSIONNAME": "Console",
    "SystemDrive": "C:",
    "SystemRoot": "C:\\Windows",
    "TAILWIND_MODE": "watch",
    "TEMP": "C:\\Users\\KVCH\\AppData\\Local\\Temp",
    "TMP": "C:\\Users\\KVCH\\AppData\\Local\\Temp",
    "USERDOMAIN": "KVCH-PC",
    "USERNAME": "KVCH",
    "USERPROFILE": "C:\\Users\\KVCH",
    "WEBPACK_DEV_SERVER": "true",
    "windir": "C:\\Windows",
    "windows_tracing_flags": "3",
    "windows_tracing_logfile": "C:\\BVTBin\\Tests\\installpackage\\csilogfile.log",
    "_prog": "node"
  },
  "sharedObjects": [
    "C:\\Program Files\\nodejs\\node.exe",
    "C:\\Windows\\SYSTEM32\\ntdll.dll",
    "C:\\Windows\\system32\\kernel32.dll",
    "C:\\Windows\\system32\\KERNELBASE.dll",
    "C:\\Windows\\system32\\dbghelp.dll",
    "C:\\Windows\\system32\\msvcrt.dll",
    "C:\\Windows\\system32\\WS2_32.dll",
    "C:\\Windows\\system32\\RPCRT4.dll",
    "C:\\Windows\\system32\\NSI.dll",
    "C:\\Windows\\system32\\ADVAPI32.dll",
    "C:\\Windows\\SYSTEM32\\sechost.dll",
    "C:\\Windows\\system32\\USER32.dll",
    "C:\\Windows\\system32\\GDI32.dll",
    "C:\\Windows\\system32\\LPK.dll",
    "C:\\Windows\\system32\\USP10.dll",
    "C:\\Windows\\system32\\IPHLPAPI.DLL",
    "C:\\Windows\\system32\\WINNSI.DLL",
    "C:\\Windows\\system32\\PSAPI.DLL",
    "C:\\Windows\\system32\\USERENV.dll",
    "C:\\Windows\\system32\\profapi.dll",
    "C:\\Windows\\system32\\CRYPT32.dll",
    "C:\\Windows\\system32\\MSASN1.dll",
    "C:\\Windows\\system32\\bcrypt.dll",
    "C:\\Windows\\system32\\WINMM.dll",
    "C:\\Windows\\system32\\IMM32.DLL",
    "C:\\Windows\\system32\\MSCTF.dll",
    "C:\\Windows\\system32\\api-ms-win-core-synch-l1-2-0.DLL",
    "C:\\Windows\\system32\\powrprof.dll",
    "C:\\Windows\\system32\\SETUPAPI.dll",
    "C:\\Windows\\system32\\CFGMGR32.dll",
    "C:\\Windows\\system32\\OLEAUT32.dll",
    "C:\\Windows\\system32\\ole32.dll",
    "C:\\Windows\\system32\\DEVOBJ.dll",
    "C:\\Windows\\system32\\uxtheme.dll",
    "C:\\Windows\\system32\\mswsock.dll",
    "C:\\Windows\\System32\\wshtcpip.dll",
    "C:\\Windows\\System32\\wship6.dll",
    "C:\\Windows\\system32\\bcryptprimitives.dll",
    "C:\\Windows\\system32\\dhcpcsvc6.DLL",
    "C:\\Windows\\system32\\dhcpcsvc.DLL",
    "C:\\Windows\\system32\\NLAapi.dll",
    "C:\\Windows\\system32\\napinsp.dll",
    "C:\\Windows\\system32\\pnrpnsp.dll",
    "C:\\Windows\\system32\\DNSAPI.dll",
    "C:\\Windows\\System32\\winrnr.dll",
    "C:\\Windows\\system32\\cryptbase.dll",
    "C:\\Windows\\system32\\rasadhlp.dll",
    "C:\\Windows\\System32\\fwpuclnt.dll"
  ]
}